<?xml version="1.0" encoding="UTF-8" standalone="no"?>
<!-- Created with Inkscape (http://www.inkscape.org/) -->

<svg
   xmlns:dc="http://purl.org/dc/elements/1.1/"
   xmlns:cc="http://creativecommons.org/ns#"
   xmlns:rdf="http://www.w3.org/1999/02/22-rdf-syntax-ns#"
   xmlns:svg="http://www.w3.org/2000/svg"
   xmlns="http://www.w3.org/2000/svg"
   xmlns:sodipodi="http://sodipodi.sourceforge.net/DTD/sodipodi-0.dtd"
   xmlns:inkscape="http://www.inkscape.org/namespaces/inkscape"
   width="47"
   height="45"
   id="svg2"
   sodipodi:version="0.32"
   inkscape:version="0.92.5 (2060ec1f9f, 2020-04-08)"
   version="1.0"
   sodipodi:docname="line.svg"
   inkscape:output_extension="org.inkscape.output.svgz.inkscape"
   inkscape:export-filename="arrow-up.png"
   inkscape:export-xdpi="11.25"
   inkscape:export-ydpi="11.25"
   viewBox="0 0 47 45">
  <sodipodi:namedview
     id="base"
     pagecolor="#000000"
     bordercolor="#666666"
     borderopacity="1.0"
     gridtolerance="10000"
     guidetolerance="10"
     objecttolerance="10"
     inkscape:pageopacity="0"
     inkscape:pageshadow="2"
     inkscape:zoom="12.013064"
     inkscape:cx="1.1418642"
     inkscape:cy="9.6986468"
     inkscape:document-units="px"
     inkscape:current-layer="layer1"
     width="128px"
     height="128px"
     showgrid="true"
     inkscape:window-width="1212"
     inkscape:window-height="799"
     inkscape:window-x="297"
     inkscape:window-y="219"
     inkscape:snap-nodes="true"
     inkscape:window-maximized="0"
     fit-margin-top="0"
     fit-margin-left="0"
     fit-margin-right="0"
     fit-margin-bottom="0"
     inkscape:showpageshadow="false"
     borderlayer="false"
     inkscape:pagecheckerboard="true">
    <inkscape:grid
       enabled="true"
       visible="true"
       empspacing="2"
       empopacity="0.01960784"
       opacity="0.01960784"
       empcolor="#0101ff"
       color="#0000ff"
       spacingy="2px"
       spacingx="2px"
       originy="-69"
       originx="-28"
       type="xygrid"
       id="GridFromPre046Settings"
       snapvisiblegridlinesonly="true" />
  </sodipodi:namedview>
  <defs
     id="defs4">
  </defs>
  <metadata
     id="metadata7">
    <rdf:RDF>
      <cc:Work
         rdf:about="">
        <dc:format>image/svg+xml</dc:format>
        <dc:type
           rdf:resource="http://purl.org/dc/dcmitype/StillImage" />
        <dc:title />
      </cc:Work>
    </rdf:RDF>
  </metadata>
  <g
     id="layer1"
     inkscape:groupmode="layer"
     inkscape:label="Layer 1"
     transform="translate(-28,-14)">
    <g
       id="horizontal-line">
      <rect
         y="53"
         x="36"
         height="1"
         width="32"
         id="rect831"
         class="ColorScheme-Highlight"
         style="opacity:1;fill:#565656;fill-opacity:1;fill-rule:nonzero;stroke:none;stroke-width:1.78699994;stroke-linecap:round;stroke-miterlimit:4;stroke-dasharray:none;stroke-dashoffset:0;stroke-opacity:1" />
      <rect
         style="opacity:1;fill:none;fill-opacity:0.6;fill-rule:nonzero;stroke:none;stroke-width:1.78699994;stroke-linecap:round;stroke-miterlimit:4;stroke-dasharray:none;stroke-dashoffset:0;stroke-opacity:1"
         class="ColorScheme-Highlight"
         id="rect822"
         width="32"
         height="1"
         x="36"
         y="52" />
      <rect
         y="54"
         x="36"
         height="1"
         width="32"
         id="rect824"
         class="ColorScheme-Highlight"
         style="opacity:1;fill:none;fill-opacity:0.6;fill-rule:nonzero;stroke:none;stroke-width:1.78699994;stroke-linecap:round;stroke-miterlimit:4;stroke-dasharray:none;stroke-dashoffset:0;stroke-opacity:1" />
    </g>
    <g
       id="vertical-line"
       transform="rotate(90,63,43)">
      <rect
         style="opacity:1;fill:#565656;fill-opacity:1;fill-rule:nonzero;stroke:none;stroke-width:1.78699994;stroke-linecap:round;stroke-miterlimit:4;stroke-dasharray:none;stroke-dashoffset:0;stroke-opacity:1"
         class="ColorScheme-Highlight"
         id="rect833"
         width="32"
         height="1"
         x="36"
         y="53" />
      <rect
         y="52"
         x="36"
         height="1"
         width="32"
         id="rect835"
         class="ColorScheme-Highlight"
         style="opacity:1;fill:none;fill-opacity:0.6;fill-rule:nonzero;stroke:none;stroke-width:1.78699994;stroke-linecap:round;stroke-miterlimit:4;stroke-dasharray:none;stroke-dashoffset:0;stroke-opacity:1" />
      <rect
         style="opacity:1;fill:none;fill-opacity:0.6;fill-rule:nonzero;stroke:none;stroke-width:1.78699994;stroke-linecap:round;stroke-miterlimit:4;stroke-dasharray:none;stroke-dashoffset:0;stroke-opacity:1"
         class="ColorScheme-Highlight"
         id="rect837"
         width="32"
         height="1"
         x="36"
         y="54" />
    </g>
  </g>
</svg>
