<?xml version="1.0" encoding="UTF-8" standalone="no"?>
<!-- Created with Inkscape (http://www.inkscape.org/) -->

<svg
   xmlns:osb="http://www.openswatchbook.org/uri/2009/osb"
   xmlns:dc="http://purl.org/dc/elements/1.1/"
   xmlns:cc="http://creativecommons.org/ns#"
   xmlns:rdf="http://www.w3.org/1999/02/22-rdf-syntax-ns#"
   xmlns:svg="http://www.w3.org/2000/svg"
   xmlns="http://www.w3.org/2000/svg"
   xmlns:xlink="http://www.w3.org/1999/xlink"
   xmlns:sodipodi="http://sodipodi.sourceforge.net/DTD/sodipodi-0.dtd"
   xmlns:inkscape="http://www.inkscape.org/namespaces/inkscape"
   width="104.003"
   height="63.000004"
   viewBox="0 0 104.003 63.000002"
   version="1.1"
   id="svg8"
   inkscape:version="0.92.5 (2060ec1f9f, 2020-04-08)"
   sodipodi:docname="shade.svg">
  <defs
     id="defs2">
    <linearGradient
       id="grey156"
       osb:paint="solid">
      <stop
         style="stop-color:#948b80;stop-opacity:1;"
         offset="0"
         id="stop872" />
    </linearGradient>
    <linearGradient
       inkscape:collect="always"
       xlink:href="#grey156"
       id="linearGradient884"
       x1="293.20001"
       y1="-24.85"
       x2="310.20001"
       y2="-24.85"
       gradientUnits="userSpaceOnUse" />
    <linearGradient
       inkscape:collect="always"
       xlink:href="#grey156"
       id="linearGradient886"
       x1="-24.35"
       y1="-309.70001"
       x2="-2.3500004"
       y2="-309.70001"
       gradientUnits="userSpaceOnUse" />
    <linearGradient
       inkscape:collect="always"
       xlink:href="#grey156"
       id="linearGradient888"
       x1="293.20001"
       y1="-1.8469999"
       x2="310.20001"
       y2="-1.8469999"
       gradientUnits="userSpaceOnUse" />
    <linearGradient
       inkscape:collect="always"
       xlink:href="#grey156"
       id="linearGradient9103"
       gradientUnits="userSpaceOnUse"
       x1="293.20001"
       y1="-24.85"
       x2="310.20001"
       y2="-24.85" />
    <linearGradient
       inkscape:collect="always"
       xlink:href="#grey156"
       id="linearGradient9105"
       gradientUnits="userSpaceOnUse"
       x1="293.20001"
       y1="-1.8469999"
       x2="310.20001"
       y2="-1.8469999" />
    <linearGradient
       inkscape:collect="always"
       xlink:href="#grey156"
       id="linearGradient9107"
       gradientUnits="userSpaceOnUse"
       x1="-24.35"
       y1="-309.70001"
       x2="-2.3500004"
       y2="-309.70001" />
    <linearGradient
       inkscape:collect="always"
       xlink:href="#grey156"
       id="linearGradient9333"
       gradientUnits="userSpaceOnUse"
       x1="293.20001"
       y1="-24.85"
       x2="310.20001"
       y2="-24.85" />
    <linearGradient
       inkscape:collect="always"
       xlink:href="#grey156"
       id="linearGradient9335"
       gradientUnits="userSpaceOnUse"
       x1="293.20001"
       y1="-1.8469999"
       x2="310.20001"
       y2="-1.8469999" />
    <linearGradient
       inkscape:collect="always"
       xlink:href="#grey156"
       id="linearGradient9337"
       gradientUnits="userSpaceOnUse"
       x1="-24.35"
       y1="-309.70001"
       x2="-2.3500004"
       y2="-309.70001" />
  </defs>
  <sodipodi:namedview
     id="base"
     pagecolor="#ffffff"
     bordercolor="#666666"
     borderopacity="1.0"
     inkscape:pageopacity="0.0"
     inkscape:pageshadow="2"
     inkscape:zoom="11.313709"
     inkscape:cx="49.749572"
     inkscape:cy="43.218798"
     inkscape:document-units="px"
     inkscape:current-layer="layer1"
     showgrid="false"
     units="px"
     inkscape:pagecheckerboard="true"
     inkscape:showpageshadow="false"
     inkscape:window-width="1246"
     inkscape:window-height="813"
     inkscape:window-x="126"
     inkscape:window-y="173"
     inkscape:window-maximized="0"
     fit-margin-top="10"
     fit-margin-left="10"
     fit-margin-right="10"
     fit-margin-bottom="10"
     showguides="true"
     inkscape:guide-bbox="true"
     inkscape:snap-bbox="true"
     inkscape:bbox-paths="true"
     inkscape:snap-nodes="true"
     inkscape:bbox-nodes="true">
    <inkscape:grid
       type="xygrid"
       id="grid7575"
       originx="5.0030001"
       originy="-34.999997" />
  </sodipodi:namedview>
  <metadata
     id="metadata5">
    <rdf:RDF>
      <cc:Work
         rdf:about="">
        <dc:format>image/svg+xml</dc:format>
        <dc:type
           rdf:resource="http://purl.org/dc/dcmitype/StillImage" />
        <dc:title></dc:title>
      </cc:Work>
    </rdf:RDF>
  </metadata>
  <g
     inkscape:label="Layer 1"
     inkscape:groupmode="layer"
     id="layer1"
     transform="translate(5.7842,-251.64)">
    <g
       id="pressed-center">
      <g
         id="g9091"
         transform="translate(62.8688,-30.560011)">
        <g
           id="g9073">
          <rect
             style="opacity:1;fill:#2c2c2c;fill-opacity:1;fill-rule:nonzero;stroke:none;stroke-width:0.2419;stroke-linecap:square;stroke-linejoin:round;stroke-miterlimit:4;stroke-dasharray:none;stroke-dashoffset:0;stroke-opacity:1"
             id="rect9071"
             width="24"
             height="18"
             x="1.347"
             y="292.20001" />
        </g>
        <rect
           y="292.20001"
           x="1.347"
           height="1"
           width="24"
           id="rect9075"
           style="opacity:1;fill:#000000;fill-opacity:1;fill-rule:evenodd;stroke:none;stroke-width:1.00010002;stroke-linecap:round;stroke-linejoin:miter;stroke-miterlimit:4;stroke-dasharray:none;stroke-dashoffset:0;stroke-opacity:0.87850001;paint-order:normal" />
        <rect
           style="opacity:1;fill:#656058;fill-opacity:1;fill-rule:evenodd;stroke:none;stroke-width:1.00010002;stroke-linecap:round;stroke-linejoin:miter;stroke-miterlimit:4;stroke-dasharray:none;stroke-dashoffset:0;stroke-opacity:0.87850001;paint-order:normal"
           id="rect9077"
           width="20"
           height="1"
           x="3.3499999"
           y="293.20001" />
        <rect
           transform="rotate(90)"
           y="-25.35"
           x="293.20001"
           height="1"
           width="17"
           id="rect9079"
           style="opacity:1;fill:url(#linearGradient9103);fill-opacity:1;fill-rule:evenodd;stroke:none;stroke-width:1.00020003;stroke-linecap:round;stroke-linejoin:miter;stroke-miterlimit:4;stroke-dasharray:none;stroke-dashoffset:0;stroke-opacity:0.87850001;paint-order:normal" />
        <rect
           style="opacity:1;fill:url(#linearGradient9105);fill-opacity:1;fill-rule:evenodd;stroke:none;stroke-width:1.00020003;stroke-linecap:round;stroke-linejoin:miter;stroke-miterlimit:4;stroke-dasharray:none;stroke-dashoffset:0;stroke-opacity:0.87850001;paint-order:normal"
           id="rect9081"
           width="17"
           height="1"
           x="293.20001"
           y="-2.3469999"
           transform="rotate(90)" />
        <rect
           transform="rotate(90)"
           style="opacity:1;fill:#000000;fill-opacity:1;fill-rule:evenodd;stroke:none;stroke-width:1.00010002;stroke-linecap:round;stroke-linejoin:miter;stroke-miterlimit:4;stroke-dasharray:none;stroke-dashoffset:0;stroke-opacity:0.87850001;paint-order:normal"
           id="rect9083"
           width="15"
           height="1"
           x="293.20001"
           y="-24.35" />
        <rect
           y="-3.3499999"
           x="293.20001"
           height="1"
           width="15"
           id="rect9085"
           style="opacity:1;fill:#000000;fill-opacity:1;fill-rule:evenodd;stroke:none;stroke-width:1.00010002;stroke-linecap:round;stroke-linejoin:miter;stroke-miterlimit:4;stroke-dasharray:none;stroke-dashoffset:0;stroke-opacity:0.87850001;paint-order:normal"
           transform="rotate(90)" />
        <rect
           style="opacity:1;fill:url(#linearGradient9107);fill-opacity:1;fill-rule:evenodd;stroke:none;stroke-width:1.00010002;stroke-linecap:round;stroke-linejoin:miter;stroke-miterlimit:4;stroke-dasharray:none;stroke-dashoffset:0;stroke-opacity:0.87850001;paint-order:normal"
           id="rect9087"
           width="22"
           height="1"
           x="-24.35"
           y="-310.20001"
           transform="scale(-1)" />
        <rect
           transform="scale(-1)"
           style="opacity:1;fill:#000000;fill-opacity:1;fill-rule:evenodd;stroke:none;stroke-width:1.00020003;stroke-linecap:round;stroke-linejoin:miter;stroke-miterlimit:4;stroke-dasharray:none;stroke-dashoffset:0;stroke-opacity:0.87850001;paint-order:normal"
           id="rect9089"
           width="22"
           height="1"
           x="-24.360001"
           y="-309.20001" />
      </g>
      <rect
         y="267.64203"
         x="73.21685"
         height="2"
         width="8"
         id="rect9093"
         style="opacity:1;fill:#161616;fill-opacity:1;stroke:none;stroke-width:22;stroke-miterlimit:4;stroke-dasharray:none;stroke-opacity:1" />
      <rect
         style="opacity:1;fill:#9c968d;fill-opacity:1;stroke:none;stroke-width:22;stroke-miterlimit:4;stroke-dasharray:none;stroke-opacity:1"
         id="rect9095"
         width="8"
         height="2"
         x="72.218796"
         y="266.64001" />
      <path
         style="opacity:1;fill:#161616;fill-opacity:1;stroke:none;stroke-width:22;stroke-miterlimit:4;stroke-dasharray:none;stroke-opacity:1"
         d="m 73.2188,270.64 v 0.99609 l 2.585938,2.58594 -0.002,0.002 1.414063,1.41406 0.002,-0.002 0.002,0.002 1.416016,-1.41406 -0.0039,-0.002 2.585883,-2.58594 V 270.64 H 79.386769 L 77.2188,272.80797 75.050831,270.64 Z"
         id="path9159"
         inkscape:connector-curvature="0" />
      <path
         inkscape:connector-curvature="0"
         id="rect9156"
         transform="translate(-0.7812,288.9)"
         d="m 73,-19.259766 v 0.996094 l 2.585938,2.585938 -0.002,0.002 1.414063,1.414062 0.002,-0.002 0.002,0.002 1.416016,-1.414062 -0.0039,-0.002 L 81,-18.263672 v -0.996094 H 79.167969 L 77,-17.091797 74.832031,-19.259766 Z"
         style="opacity:1;fill:#9c968d;fill-opacity:1;stroke:none;stroke-width:22;stroke-miterlimit:4;stroke-dasharray:none;stroke-opacity:1" />
    </g>
    <g
       id="active-center">
      <g
         transform="translate(2.8688001,-30.560011)"
         id="g1629">
        <g
           id="g1589">
          <rect
             y="292.20001"
             x="1.347"
             height="18"
             width="24"
             id="rect3862"
             style="opacity:1;fill:#343434;fill-opacity:1;fill-rule:nonzero;stroke:none;stroke-width:0.2419;stroke-linecap:square;stroke-linejoin:round;stroke-miterlimit:4;stroke-dasharray:none;stroke-dashoffset:0;stroke-opacity:1" />
        </g>
        <rect
           style="opacity:1;fill:#000000;fill-opacity:1;fill-rule:evenodd;stroke:none;stroke-width:1.00010002;stroke-linecap:round;stroke-linejoin:miter;stroke-miterlimit:4;stroke-dasharray:none;stroke-dashoffset:0;stroke-opacity:0.87850001;paint-order:normal"
           id="rect840"
           width="24"
           height="1"
           x="1.347"
           y="292.20001" />
        <rect
           y="293.20001"
           x="3.3499999"
           height="1"
           width="20"
           id="rect842"
           style="opacity:1;fill:#656058;fill-opacity:1;fill-rule:evenodd;stroke:none;stroke-width:1.00010002;stroke-linecap:round;stroke-linejoin:miter;stroke-miterlimit:4;stroke-dasharray:none;stroke-dashoffset:0;stroke-opacity:0.87850001;paint-order:normal" />
        <rect
           style="opacity:1;fill:url(#linearGradient884);fill-opacity:1;fill-rule:evenodd;stroke:none;stroke-width:1.00020003;stroke-linecap:round;stroke-linejoin:miter;stroke-miterlimit:4;stroke-dasharray:none;stroke-dashoffset:0;stroke-opacity:0.87850001;paint-order:normal"
           id="rect1546"
           width="17"
           height="1"
           x="293.20001"
           y="-25.35"
           transform="rotate(90)" />
        <rect
           transform="rotate(90)"
           y="-2.3469999"
           x="293.20001"
           height="1"
           width="17"
           id="rect1550"
           style="opacity:1;fill:url(#linearGradient888);fill-opacity:1;fill-rule:evenodd;stroke:none;stroke-width:1.00020003;stroke-linecap:round;stroke-linejoin:miter;stroke-miterlimit:4;stroke-dasharray:none;stroke-dashoffset:0;stroke-opacity:0.87850001;paint-order:normal" />
        <rect
           y="-24.35"
           x="293.20001"
           height="1"
           width="15"
           id="rect1566"
           style="opacity:1;fill:#000000;fill-opacity:1;fill-rule:evenodd;stroke:none;stroke-width:1.00010002;stroke-linecap:round;stroke-linejoin:miter;stroke-miterlimit:4;stroke-dasharray:none;stroke-dashoffset:0;stroke-opacity:0.87850001;paint-order:normal"
           transform="rotate(90)" />
        <rect
           transform="rotate(90)"
           style="opacity:1;fill:#000000;fill-opacity:1;fill-rule:evenodd;stroke:none;stroke-width:1.00010002;stroke-linecap:round;stroke-linejoin:miter;stroke-miterlimit:4;stroke-dasharray:none;stroke-dashoffset:0;stroke-opacity:0.87850001;paint-order:normal"
           id="rect1568"
           width="15"
           height="1"
           x="293.20001"
           y="-3.3499999" />
        <rect
           transform="scale(-1)"
           y="-310.20001"
           x="-24.35"
           height="1"
           width="22"
           id="rect1591"
           style="opacity:1;fill:url(#linearGradient886);fill-opacity:1;fill-rule:evenodd;stroke:none;stroke-width:1.00010002;stroke-linecap:round;stroke-linejoin:miter;stroke-miterlimit:4;stroke-dasharray:none;stroke-dashoffset:0;stroke-opacity:0.87850001;paint-order:normal" />
        <rect
           y="-309.20001"
           x="-24.360001"
           height="1"
           width="22"
           id="rect1593"
           style="opacity:1;fill:#000000;fill-opacity:1;fill-rule:evenodd;stroke:none;stroke-width:1.00020003;stroke-linecap:round;stroke-linejoin:miter;stroke-miterlimit:4;stroke-dasharray:none;stroke-dashoffset:0;stroke-opacity:0.87850001;paint-order:normal"
           transform="scale(-1)" />
      </g>
      <rect
         style="opacity:1;fill:#161616;fill-opacity:1;stroke:none;stroke-width:22;stroke-miterlimit:4;stroke-dasharray:none;stroke-opacity:1"
         id="rect7631"
         width="8"
         height="2"
         x="13.216853"
         y="267.64203" />
      <rect
         y="266.64001"
         x="12.2188"
         height="2"
         width="8"
         id="rect7593"
         style="opacity:1;fill:#9c968d;fill-opacity:1;stroke:none;stroke-width:22;stroke-miterlimit:4;stroke-dasharray:none;stroke-opacity:1" />
      <path
         inkscape:connector-curvature="0"
         id="path9204"
         d="m 13.2188,275.64 v -0.99609 l 2.585938,-2.58594 -0.002,-0.002 1.414063,-1.41406 0.002,0.002 0.002,-0.002 1.416016,1.41406 -0.0039,0.002 2.585883,2.58594 V 275.64 H 19.386769 L 17.2188,273.47203 15.050831,275.64 Z"
         style="opacity:1;fill:#161616;fill-opacity:1;stroke:none;stroke-width:22;stroke-miterlimit:4;stroke-dasharray:none;stroke-opacity:1" />
      <path
         style="opacity:1;fill:#9c968d;fill-opacity:1;stroke:none;stroke-width:22;stroke-miterlimit:4;stroke-dasharray:none;stroke-opacity:1"
         d="m 12.2188,274.80797 v -0.9961 l 2.585938,-2.58594 -0.002,-0.002 1.414063,-1.41406 0.002,0.002 0.002,-0.002 1.416016,1.41406 -0.0039,0.002 2.585883,2.58594 v 0.9961 H 18.386769 L 16.2188,272.64 l -2.167969,2.16797 z"
         id="path9206"
         inkscape:connector-curvature="0" />
    </g>
    <g
       id="hover-center"
       transform="translate(30)">
      <g
         id="g9321"
         transform="translate(2.8688001,-30.560011)">
        <g
           id="g9303">
          <rect
             style="opacity:1;fill:#5d5d5d;fill-opacity:1;fill-rule:nonzero;stroke:none;stroke-width:0.2419;stroke-linecap:square;stroke-linejoin:round;stroke-miterlimit:4;stroke-dasharray:none;stroke-dashoffset:0;stroke-opacity:1"
             id="rect9301"
             width="24"
             height="18"
             x="1.347"
             y="292.20001" />
        </g>
        <rect
           y="292.20001"
           x="1.347"
           height="1"
           width="24"
           id="rect9305"
           style="opacity:1;fill:#000000;fill-opacity:1;fill-rule:evenodd;stroke:none;stroke-width:1.00010002;stroke-linecap:round;stroke-linejoin:miter;stroke-miterlimit:4;stroke-dasharray:none;stroke-dashoffset:0;stroke-opacity:0.87850001;paint-order:normal" />
        <rect
           style="opacity:1;fill:#656058;fill-opacity:1;fill-rule:evenodd;stroke:none;stroke-width:1.00010002;stroke-linecap:round;stroke-linejoin:miter;stroke-miterlimit:4;stroke-dasharray:none;stroke-dashoffset:0;stroke-opacity:0.87850001;paint-order:normal"
           id="rect9307"
           width="20"
           height="1"
           x="3.3499999"
           y="293.20001" />
        <rect
           transform="rotate(90)"
           y="-25.35"
           x="293.20001"
           height="1"
           width="17"
           id="rect9309"
           style="opacity:1;fill:url(#linearGradient9333);fill-opacity:1;fill-rule:evenodd;stroke:none;stroke-width:1.00020003;stroke-linecap:round;stroke-linejoin:miter;stroke-miterlimit:4;stroke-dasharray:none;stroke-dashoffset:0;stroke-opacity:0.87850001;paint-order:normal" />
        <rect
           style="opacity:1;fill:url(#linearGradient9335);fill-opacity:1;fill-rule:evenodd;stroke:none;stroke-width:1.00020003;stroke-linecap:round;stroke-linejoin:miter;stroke-miterlimit:4;stroke-dasharray:none;stroke-dashoffset:0;stroke-opacity:0.87850001;paint-order:normal"
           id="rect9311"
           width="17"
           height="1"
           x="293.20001"
           y="-2.3469999"
           transform="rotate(90)" />
        <rect
           transform="rotate(90)"
           style="opacity:1;fill:#000000;fill-opacity:1;fill-rule:evenodd;stroke:none;stroke-width:1.00010002;stroke-linecap:round;stroke-linejoin:miter;stroke-miterlimit:4;stroke-dasharray:none;stroke-dashoffset:0;stroke-opacity:0.87850001;paint-order:normal"
           id="rect9313"
           width="15"
           height="1"
           x="293.20001"
           y="-24.35" />
        <rect
           y="-3.3499999"
           x="293.20001"
           height="1"
           width="15"
           id="rect9315"
           style="opacity:1;fill:#000000;fill-opacity:1;fill-rule:evenodd;stroke:none;stroke-width:1.00010002;stroke-linecap:round;stroke-linejoin:miter;stroke-miterlimit:4;stroke-dasharray:none;stroke-dashoffset:0;stroke-opacity:0.87850001;paint-order:normal"
           transform="rotate(90)" />
        <rect
           style="opacity:1;fill:url(#linearGradient9337);fill-opacity:1;fill-rule:evenodd;stroke:none;stroke-width:1.00010002;stroke-linecap:round;stroke-linejoin:miter;stroke-miterlimit:4;stroke-dasharray:none;stroke-dashoffset:0;stroke-opacity:0.87850001;paint-order:normal"
           id="rect9317"
           width="22"
           height="1"
           x="-24.35"
           y="-310.20001"
           transform="scale(-1)" />
        <rect
           transform="scale(-1)"
           style="opacity:1;fill:#000000;fill-opacity:1;fill-rule:evenodd;stroke:none;stroke-width:1.00020003;stroke-linecap:round;stroke-linejoin:miter;stroke-miterlimit:4;stroke-dasharray:none;stroke-dashoffset:0;stroke-opacity:0.87850001;paint-order:normal"
           id="rect9319"
           width="22"
           height="1"
           x="-24.360001"
           y="-309.20001" />
      </g>
      <rect
         y="267.64203"
         x="13.216853"
         height="2"
         width="8"
         id="rect9323"
         style="opacity:1;fill:#000000;fill-opacity:1;stroke:none;stroke-width:22;stroke-miterlimit:4;stroke-dasharray:none;stroke-opacity:1" />
      <rect
         style="opacity:1;fill:#f0dcbb;fill-opacity:1;stroke:none;stroke-width:22;stroke-miterlimit:4;stroke-dasharray:none;stroke-opacity:1"
         id="rect9325"
         width="8"
         height="2"
         x="12.2188"
         y="266.64001" />
      <path
         style="opacity:1;fill:#000000;fill-opacity:1;stroke:none;stroke-width:22;stroke-miterlimit:4;stroke-dasharray:none;stroke-opacity:1"
         d="m 13.2188,275.64 v -0.99609 l 2.585938,-2.58594 -0.002,-0.002 1.414063,-1.41406 0.002,0.002 0.002,-0.002 1.416016,1.41406 -0.0039,0.002 2.585883,2.58594 V 275.64 H 19.386769 L 17.2188,273.47203 15.050831,275.64 Z"
         id="path9327"
         inkscape:connector-curvature="0" />
      <path
         inkscape:connector-curvature="0"
         id="path9329"
         d="m 12.2188,274.80797 v -0.9961 l 2.585938,-2.58594 -0.002,-0.002 1.414063,-1.41406 0.002,0.002 0.002,-0.002 1.416016,1.41406 -0.0039,0.002 2.585883,2.58594 v 0.9961 H 18.386769 L 16.2188,272.64 l -2.167969,2.16797 z"
         style="opacity:1;fill:#f0dcbb;fill-opacity:1;stroke:none;stroke-width:22;stroke-miterlimit:4;stroke-dasharray:none;stroke-opacity:1" />
    </g>
    <g
       id="inactive-center"
       transform="translate(0.167969,25.000002)">
      <g
         id="g9359"
         transform="translate(2.8688001,-30.560011)">
        <g
           id="g9341">
          <rect
             style="opacity:1;fill:#424242;fill-opacity:1;fill-rule:nonzero;stroke:none;stroke-width:0.2419;stroke-linecap:square;stroke-linejoin:round;stroke-miterlimit:4;stroke-dasharray:none;stroke-dashoffset:0;stroke-opacity:1"
             id="rect9339"
             width="24"
             height="18"
             x="1.347"
             y="292.20001" />
        </g>
        <rect
           y="292.20001"
           x="1.347"
           height="1"
           width="24"
           id="rect9343"
           style="opacity:1;fill:#000000;fill-opacity:1;fill-rule:evenodd;stroke:none;stroke-width:1.00010002;stroke-linecap:round;stroke-linejoin:miter;stroke-miterlimit:4;stroke-dasharray:none;stroke-dashoffset:0;stroke-opacity:0.87850001;paint-order:normal" />
        <rect
           style="opacity:1;fill:#5b5b5b;fill-opacity:1;fill-rule:evenodd;stroke:none;stroke-width:1.00010002;stroke-linecap:round;stroke-linejoin:miter;stroke-miterlimit:4;stroke-dasharray:none;stroke-dashoffset:0;stroke-opacity:0.87850001;paint-order:normal"
           id="rect9345"
           width="20"
           height="1"
           x="3.3499999"
           y="293.20001" />
        <rect
           transform="rotate(90)"
           y="-25.35"
           x="293.20001"
           height="1"
           width="17"
           id="rect9347"
           style="opacity:1;fill:#5b5b5b;fill-opacity:1;fill-rule:evenodd;stroke:none;stroke-width:1.00020003;stroke-linecap:round;stroke-linejoin:miter;stroke-miterlimit:4;stroke-dasharray:none;stroke-dashoffset:0;stroke-opacity:0.87850001;paint-order:normal" />
        <rect
           style="opacity:1;fill:#5b5b5b;fill-opacity:1;fill-rule:evenodd;stroke:none;stroke-width:1.00020003;stroke-linecap:round;stroke-linejoin:miter;stroke-miterlimit:4;stroke-dasharray:none;stroke-dashoffset:0;stroke-opacity:0.87850001;paint-order:normal"
           id="rect9349"
           width="17"
           height="1"
           x="293.20001"
           y="-2.3469999"
           transform="rotate(90)" />
        <rect
           transform="rotate(90)"
           style="opacity:1;fill:#202020;fill-opacity:1;fill-rule:evenodd;stroke:none;stroke-width:1.00010002;stroke-linecap:round;stroke-linejoin:miter;stroke-miterlimit:4;stroke-dasharray:none;stroke-dashoffset:0;stroke-opacity:0.87850001;paint-order:normal"
           id="rect9351"
           width="15"
           height="1"
           x="293.20001"
           y="-24.35" />
        <rect
           y="-3.3499999"
           x="293.20001"
           height="1"
           width="15"
           id="rect9353"
           style="opacity:1;fill:#202020;fill-opacity:1;fill-rule:evenodd;stroke:none;stroke-width:1.00010002;stroke-linecap:round;stroke-linejoin:miter;stroke-miterlimit:4;stroke-dasharray:none;stroke-dashoffset:0;stroke-opacity:0.87850001;paint-order:normal"
           transform="rotate(90)" />
        <rect
           style="opacity:1;fill:#5b5b5b;fill-opacity:1;fill-rule:evenodd;stroke:none;stroke-width:1.00010002;stroke-linecap:round;stroke-linejoin:miter;stroke-miterlimit:4;stroke-dasharray:none;stroke-dashoffset:0;stroke-opacity:0.87850001;paint-order:normal"
           id="rect9355"
           width="22"
           height="1"
           x="-24.35"
           y="-310.20001"
           transform="scale(-1)" />
        <rect
           transform="scale(-1)"
           style="opacity:1;fill:#202020;fill-opacity:1;fill-rule:evenodd;stroke:none;stroke-width:1.00020003;stroke-linecap:round;stroke-linejoin:miter;stroke-miterlimit:4;stroke-dasharray:none;stroke-dashoffset:0;stroke-opacity:0.87850001;paint-order:normal"
           id="rect9357"
           width="22"
           height="1"
           x="-24.360001"
           y="-309.20001" />
      </g>
      <rect
         style="opacity:1;fill:#727272;fill-opacity:1;stroke:none;stroke-width:22;stroke-miterlimit:4;stroke-dasharray:none;stroke-opacity:1"
         id="rect9363"
         width="8"
         height="2"
         x="12.2188"
         y="266.64001" />
      <path
         inkscape:connector-curvature="0"
         id="path9367"
         d="m 12.2188,274.80797 v -0.9961 l 2.585938,-2.58594 -0.002,-0.002 1.414063,-1.41406 0.002,0.002 0.002,-0.002 1.416016,1.41406 -0.0039,0.002 2.585883,2.58594 v 0.9961 H 18.386769 L 16.2188,272.64 l -2.167969,2.16797 z"
         style="opacity:1;fill:#727272;fill-opacity:1;stroke:none;stroke-width:22;stroke-miterlimit:4;stroke-dasharray:none;stroke-opacity:1" />
    </g>
    <g
       transform="translate(29.989999,25)"
       id="hover-inactive-center">
      <g
         transform="translate(2.8688001,-30.560011)"
         id="g9477">
        <g
           id="g9459">
          <rect
             y="292.20001"
             x="1.347"
             height="18"
             width="24"
             id="rect9457"
             style="opacity:1;fill:#686868;fill-opacity:1;fill-rule:nonzero;stroke:none;stroke-width:0.2419;stroke-linecap:square;stroke-linejoin:round;stroke-miterlimit:4;stroke-dasharray:none;stroke-dashoffset:0;stroke-opacity:1" />
        </g>
        <rect
           style="opacity:1;fill:#000000;fill-opacity:1;fill-rule:evenodd;stroke:none;stroke-width:1.00010002;stroke-linecap:round;stroke-linejoin:miter;stroke-miterlimit:4;stroke-dasharray:none;stroke-dashoffset:0;stroke-opacity:0.87850001;paint-order:normal"
           id="rect9461"
           width="24"
           height="1"
           x="1.347"
           y="292.20001" />
        <rect
           y="293.20001"
           x="3.3499999"
           height="1"
           width="20"
           id="rect9463"
           style="opacity:1;fill:#5b5b5b;fill-opacity:1;fill-rule:evenodd;stroke:none;stroke-width:1.00010002;stroke-linecap:round;stroke-linejoin:miter;stroke-miterlimit:4;stroke-dasharray:none;stroke-dashoffset:0;stroke-opacity:0.87850001;paint-order:normal" />
        <rect
           style="opacity:1;fill:#5b5b5b;fill-opacity:1;fill-rule:evenodd;stroke:none;stroke-width:1.00020003;stroke-linecap:round;stroke-linejoin:miter;stroke-miterlimit:4;stroke-dasharray:none;stroke-dashoffset:0;stroke-opacity:0.87850001;paint-order:normal"
           id="rect9465"
           width="17"
           height="1"
           x="293.20001"
           y="-25.35"
           transform="rotate(90)" />
        <rect
           transform="rotate(90)"
           y="-2.3469999"
           x="293.20001"
           height="1"
           width="17"
           id="rect9467"
           style="opacity:1;fill:#5b5b5b;fill-opacity:1;fill-rule:evenodd;stroke:none;stroke-width:1.00020003;stroke-linecap:round;stroke-linejoin:miter;stroke-miterlimit:4;stroke-dasharray:none;stroke-dashoffset:0;stroke-opacity:0.87850001;paint-order:normal" />
        <rect
           y="-24.35"
           x="293.20001"
           height="1"
           width="15"
           id="rect9469"
           style="opacity:1;fill:#202020;fill-opacity:1;fill-rule:evenodd;stroke:none;stroke-width:1.00010002;stroke-linecap:round;stroke-linejoin:miter;stroke-miterlimit:4;stroke-dasharray:none;stroke-dashoffset:0;stroke-opacity:0.87850001;paint-order:normal"
           transform="rotate(90)" />
        <rect
           transform="rotate(90)"
           style="opacity:1;fill:#202020;fill-opacity:1;fill-rule:evenodd;stroke:none;stroke-width:1.00010002;stroke-linecap:round;stroke-linejoin:miter;stroke-miterlimit:4;stroke-dasharray:none;stroke-dashoffset:0;stroke-opacity:0.87850001;paint-order:normal"
           id="rect9471"
           width="15"
           height="1"
           x="293.20001"
           y="-3.3499999" />
        <rect
           transform="scale(-1)"
           y="-310.20001"
           x="-24.35"
           height="1"
           width="22"
           id="rect9473"
           style="opacity:1;fill:#5b5b5b;fill-opacity:1;fill-rule:evenodd;stroke:none;stroke-width:1.00010002;stroke-linecap:round;stroke-linejoin:miter;stroke-miterlimit:4;stroke-dasharray:none;stroke-dashoffset:0;stroke-opacity:0.87850001;paint-order:normal" />
        <rect
           y="-309.20001"
           x="-24.360001"
           height="1"
           width="22"
           id="rect9475"
           style="opacity:1;fill:#202020;fill-opacity:1;fill-rule:evenodd;stroke:none;stroke-width:1.00020003;stroke-linecap:round;stroke-linejoin:miter;stroke-miterlimit:4;stroke-dasharray:none;stroke-dashoffset:0;stroke-opacity:0.87850001;paint-order:normal"
           transform="scale(-1)" />
      </g>
      <rect
         y="266.64001"
         x="12.2188"
         height="2"
         width="8"
         id="rect9479"
         style="opacity:1;fill:#c0c0c0;fill-opacity:1;stroke:none;stroke-width:22;stroke-miterlimit:4;stroke-dasharray:none;stroke-opacity:1" />
      <path
         style="opacity:1;fill:#c0c0c0;fill-opacity:1;stroke:none;stroke-width:22;stroke-miterlimit:4;stroke-dasharray:none;stroke-opacity:1"
         d="m 12.2188,274.80797 v -0.9961 l 2.585938,-2.58594 -0.002,-0.002 1.414063,-1.41406 0.002,0.002 0.002,-0.002 1.416016,1.41406 -0.0039,0.002 2.585883,2.58594 v 0.9961 H 18.386769 L 16.2188,272.64 l -2.167969,2.16797 z"
         id="path9481"
         inkscape:connector-curvature="0" />
    </g>
    <g
       transform="translate(60,25)"
       id="pressed-inactive-center">
      <g
         transform="translate(2.8688001,-30.560011)"
         id="g9505">
        <g
           id="g9487">
          <rect
             y="292.20001"
             x="1.347"
             height="18"
             width="24"
             id="rect9485"
             style="opacity:1;fill:#2c2c2c;fill-opacity:1;fill-rule:nonzero;stroke:none;stroke-width:0.2419;stroke-linecap:square;stroke-linejoin:round;stroke-miterlimit:4;stroke-dasharray:none;stroke-dashoffset:0;stroke-opacity:1" />
        </g>
        <rect
           style="opacity:1;fill:#000000;fill-opacity:1;fill-rule:evenodd;stroke:none;stroke-width:1.00010002;stroke-linecap:round;stroke-linejoin:miter;stroke-miterlimit:4;stroke-dasharray:none;stroke-dashoffset:0;stroke-opacity:0.87850001;paint-order:normal"
           id="rect9489"
           width="24"
           height="1"
           x="1.347"
           y="292.20001" />
        <rect
           y="293.20001"
           x="3.3499999"
           height="1"
           width="20"
           id="rect9491"
           style="opacity:1;fill:#5b5b5b;fill-opacity:1;fill-rule:evenodd;stroke:none;stroke-width:1.00010002;stroke-linecap:round;stroke-linejoin:miter;stroke-miterlimit:4;stroke-dasharray:none;stroke-dashoffset:0;stroke-opacity:0.87850001;paint-order:normal" />
        <rect
           style="opacity:1;fill:#5b5b5b;fill-opacity:1;fill-rule:evenodd;stroke:none;stroke-width:1.00020003;stroke-linecap:round;stroke-linejoin:miter;stroke-miterlimit:4;stroke-dasharray:none;stroke-dashoffset:0;stroke-opacity:0.87850001;paint-order:normal"
           id="rect9493"
           width="17"
           height="1"
           x="293.20001"
           y="-25.35"
           transform="rotate(90)" />
        <rect
           transform="rotate(90)"
           y="-2.3469999"
           x="293.20001"
           height="1"
           width="17"
           id="rect9495"
           style="opacity:1;fill:#5b5b5b;fill-opacity:1;fill-rule:evenodd;stroke:none;stroke-width:1.00020003;stroke-linecap:round;stroke-linejoin:miter;stroke-miterlimit:4;stroke-dasharray:none;stroke-dashoffset:0;stroke-opacity:0.87850001;paint-order:normal" />
        <rect
           y="-24.35"
           x="293.20001"
           height="1"
           width="15"
           id="rect9497"
           style="opacity:1;fill:#202020;fill-opacity:1;fill-rule:evenodd;stroke:none;stroke-width:1.00010002;stroke-linecap:round;stroke-linejoin:miter;stroke-miterlimit:4;stroke-dasharray:none;stroke-dashoffset:0;stroke-opacity:0.87850001;paint-order:normal"
           transform="rotate(90)" />
        <rect
           transform="rotate(90)"
           style="opacity:1;fill:#202020;fill-opacity:1;fill-rule:evenodd;stroke:none;stroke-width:1.00010002;stroke-linecap:round;stroke-linejoin:miter;stroke-miterlimit:4;stroke-dasharray:none;stroke-dashoffset:0;stroke-opacity:0.87850001;paint-order:normal"
           id="rect9499"
           width="15"
           height="1"
           x="293.20001"
           y="-3.3499999" />
        <rect
           transform="scale(-1)"
           y="-310.20001"
           x="-24.35"
           height="1"
           width="22"
           id="rect9501"
           style="opacity:1;fill:#5b5b5b;fill-opacity:1;fill-rule:evenodd;stroke:none;stroke-width:1.00010002;stroke-linecap:round;stroke-linejoin:miter;stroke-miterlimit:4;stroke-dasharray:none;stroke-dashoffset:0;stroke-opacity:0.87850001;paint-order:normal" />
        <rect
           y="-309.20001"
           x="-24.360001"
           height="1"
           width="22"
           id="rect9503"
           style="opacity:1;fill:#202020;fill-opacity:1;fill-rule:evenodd;stroke:none;stroke-width:1.00020003;stroke-linecap:round;stroke-linejoin:miter;stroke-miterlimit:4;stroke-dasharray:none;stroke-dashoffset:0;stroke-opacity:0.87850001;paint-order:normal"
           transform="scale(-1)" />
      </g>
      <rect
         y="266.64001"
         x="12.2188"
         height="2"
         width="8"
         id="rect9507"
         style="opacity:1;fill:#848484;fill-opacity:1;stroke:none;stroke-width:22;stroke-miterlimit:4;stroke-dasharray:none;stroke-opacity:1" />
      <path
         style="opacity:1;fill:#848484;fill-opacity:1;stroke:none;stroke-width:22;stroke-miterlimit:4;stroke-dasharray:none;stroke-opacity:1"
         d="m 12.2188,269.64 v 0.9961 l 2.585938,2.58594 -0.002,0.002 1.414063,1.41406 0.002,-0.002 0.002,0.002 1.416016,-1.41406 -0.0039,-0.002 2.585883,-2.58594 V 269.64 H 18.386769 L 16.2188,271.80797 14.050831,269.64 Z"
         id="path9509"
         inkscape:connector-curvature="0" />
    </g>
  </g>
</svg>
